%YAML 1.1
%TAG !u! tag:unity3d.com,2011:
--- !u!114 &11400000
MonoBehaviour:
  m_ObjectHideFlags: 0
  m_CorrespondingSourceObject: {fileID: 0}
  m_PrefabInstance: {fileID: 0}
  m_PrefabAsset: {fileID: 0}
  m_GameObject: {fileID: 0}
  m_Enabled: 1
  m_EditorHideFlags: 0
  m_Script: {fileID: 11500000, guid: 549f37f97a2afe04da0deae75d66193e, type: 3}
  m_Name: HealItemSO
  m_EditorClassIdentifier: 
  name: "\u85AC\u8349"
  targetType: 0
  healPoint: 40
