%YAML 1.1
%TAG !u! tag:unity3d.com,2011:
--- !u!114 &11400000
MonoBehaviour:
  m_ObjectHideFlags: 0
  m_CorrespondingSourceObject: {fileID: 0}
  m_PrefabInstance: {fileID: 0}
  m_PrefabAsset: {fileID: 0}
  m_GameObject: {fileID: 0}
  m_Enabled: 1
  m_EditorHideFlags: 0
  m_Script: {fileID: 11500000, guid: 71aa9e416c59b004ea8c1791b0eacd58, type: 3}
  m_Name: Saharada
  m_EditorClassIdentifier: 
  name: "\u89E6\u624B\u7363\u30B5\u30CF\u30E9\u30C0"
  description: "\u30D5\u30EB\u30AB\u8857\u3067\u6226\u3046\u9B54\u738B\u306E\u624B\u4E0B\n\u89E6\u624B\u3067\u653B\u6483\u3057\u3066\u304F\u308B"
  frontSprite: {fileID: 21300000, guid: aa1f2c840e23cff49bf32c38142d6194, type: 3}
  backSprinte: {fileID: 0}
  type1: 0
  type2: 0
  maxHP: 0
  attack: 0
  defense: 0
  spAttack: 0
  spDefense: 0
  speed: 0
  learnableMoves: []
